code.utf8
…
Strains by Country

fgsc %>%
  select(Country) %>%
  group_by(Country) %>%
  tally(sort = T)

## # A tibble: 21 x 2
##          Country     n
##            <chr> <int>
##  1        Canada  4805
##  2        Brazil  1560
##  3 United States  1321
##  4         China   568
##  5  South Africa   568
##  6        France   427
##  7     Argentina   420
##  8       Uruguay   396
##  9   Netherlands   251
## 10        Russia   196
## # ... with 11 more rows
…
